…
## Term frequency in Jane Austen’s novels

``` r
(book_words <- austen_books() %>%
        unnest_tokens(word, text) %>%
        count(book, word, sort = TRUE))
```

    ## # A tibble: 40,379 × 3
    ##    book              word      n
    ##    <fct>             <chr> <int>
    ##  1 Mansfield Park    the    6206
    ##  2 Mansfield Park    to     5475
    ##  3 Mansfield Park    and    5438
    ##  4 Emma              to     5239
    ##  5 Emma              the    5201
    ##  6 Emma              and    4896
    ##  7 Mansfield Park    of     4778
    ##  8 Pride & Prejudice the    4331
    ##  9 Emma              of     4291
    ## 10 Pride & Prejudice to     4162
    ## # ℹ 40,369 more rows
…
``` r
book_words %>%
        left_join(total_words)
```

    ## Joining with `by = join_by(book)`

    ## # A tibble: 40,379 × 4
    ##    book              word      n  total
    ##    <fct>             <chr> <int>  <int>
    ##  1 Mansfield Park    the    6206 160460
    ##  2 Mansfield Park    to     5475 160460
    ##  3 Mansfield Park    and    5438 160460
    ##  4 Emma              to     5239 160996
    ##  5 Emma              the    5201 160996
    ##  6 Emma              and    4896 160996
    ##  7 Mansfield Park    of     4778 160460
    ##  8 Pride & Prejudice the    4331 122204
    ##  9 Emma              of     4291 160996
    ## 10 Pride & Prejudice to     4162 122204
    ## # ℹ 40,369 more rows
…
## Zipf’s law

``` r
(freq_by_rank <- book_words %>%
        left_join(total_words) %>%
        group_by(book) %>%
        mutate(rank = row_number(),
               term_freq = n/total) %>%
        ungroup())
```

    ## Joining with `by = join_by(book)`

    ## # A tibble: 40,379 × 6
    ##    book              word      n  total  rank term_freq
    ##    <fct>             <chr> <int>  <int> <int>     <dbl>
    ##  1 Mansfield Park    the    6206 160460     1    0.0387
    ##  2 Mansfield Park    to     5475 160460     2    0.0341
    ##  3 Mansfield Park    and    5438 160460     3    0.0339
    ##  4 Emma              to     5239 160996     1    0.0325
    ##  5 Emma              the    5201 160996     2    0.0323
    ##  6 Emma              and    4896 160996     3    0.0304
    ##  7 Mansfield Park    of     4778 160460     4    0.0298
    ##  8 Pride & Prejudice the    4331 122204     1    0.0354
    ##  9 Emma              of     4291 160996     4    0.0267
    ## 10 Pride & Prejudice to     4162 122204     2    0.0341
    ## # ℹ 40,369 more rows
…
## `tidytext::bind_tf_idf()`

``` r
book_words %>%
        bind_tf_idf(term = word,
                    document = book,
                    n = n)
```

    ## # A tibble: 40,379 × 6
    ##    book              word      n     tf   idf tf_idf
    ##    <fct>             <chr> <int>  <dbl> <dbl>  <dbl>
    ##  1 Mansfield Park    the    6206 0.0387     0      0
    ##  2 Mansfield Park    to     5475 0.0341     0      0
    ##  3 Mansfield Park    and    5438 0.0339     0      0
    ##  4 Emma              to     5239 0.0325     0      0
    ##  5 Emma              the    5201 0.0323     0      0
    ##  6 Emma              and    4896 0.0304     0      0
    ##  7 Mansfield Park    of     4778 0.0298     0      0
    ##  8 Pride & Prejudice the    4331 0.0354     0      0
    ##  9 Emma              of     4291 0.0267     0      0
    ## 10 Pride & Prejudice to     4162 0.0341     0      0
    ## # ℹ 40,369 more rows

=\> zero for extremely common words

``` r
book_words %>%
        bind_tf_idf(term = word,
                    document = book,
                    n = n) %>%
        arrange(desc(tf_idf))
```

    ## # A tibble: 40,379 × 6
    ##    book                word          n      tf   idf  tf_idf
    ##    <fct>               <chr>     <int>   <dbl> <dbl>   <dbl>
    ##  1 Sense & Sensibility elinor      623 0.00519  1.79 0.00931
    ##  2 Sense & Sensibility marianne    492 0.00410  1.79 0.00735
    ##  3 Mansfield Park      crawford    493 0.00307  1.79 0.00551
    ##  4 Pride & Prejudice   darcy       373 0.00305  1.79 0.00547
    ##  5 Persuasion          elliot      254 0.00304  1.79 0.00544
    ##  6 Emma                emma        786 0.00488  1.10 0.00536
    ##  7 Northanger Abbey    tilney      196 0.00252  1.79 0.00452
    ##  8 Emma                weston      389 0.00242  1.79 0.00433
    ##  9 Pride & Prejudice   bennet      294 0.00241  1.79 0.00431
    ## 10 Persuasion          wentworth   191 0.00228  1.79 0.00409
    ## # ℹ 40,369 more rows
…
``` r
physics <- gutenberg_download(c(37729, 14725, 13476, 30155), 
                              meta_fields = "author")

(physics_words <- physics %>%
        unnest_tokens(word, text) %>%
        count(author, word, sort = TRUE))
```

    ## # A tibble: 12,668 × 3
    ##    author              word      n
    ##    <chr>               <chr> <int>
    ##  1 Galilei, Galileo    the    3760
    ##  2 Tesla, Nikola       the    3604
    ##  3 Huygens, Christiaan the    3553
    ##  4 Einstein, Albert    the    2993
    ##  5 Galilei, Galileo    of     2049
    ##  6 Einstein, Albert    of     2029
    ##  7 Tesla, Nikola       of     1737
    ##  8 Huygens, Christiaan of     1708
    ##  9 Huygens, Christiaan to     1207
    ## 10 Tesla, Nikola       a      1176
    ## # ℹ 12,658 more rows
…
