…
## Data

``` r
sotu_texts <- readtext(sotu_dir())
```

``` r
(sotu_whole <- sotu_meta %>%
                arrange(president) %>%
                bind_cols(sotu_texts) %>%
                as_tibble())
```

    ## # A tibble: 240 × 8
    ##        X president        year years_active party      sotu_type doc_id         text 
    ##    <int> <chr>           <int> <chr>        <chr>      <chr>     <chr>          <chr>
    ##  1    73 Abraham Lincoln  1861 1861-1865    Republican written   abraham-linco… "\n\…
    ##  2    74 Abraham Lincoln  1862 1861-1865    Republican written   abraham-linco… "\n\…
    ##  3    75 Abraham Lincoln  1863 1861-1865    Republican written   abraham-linco… "\n\…
    ##  4    76 Abraham Lincoln  1864 1861-1865    Republican written   abraham-linco… "\n\…
    ##  5    41 Andrew Jackson   1829 1829-1833    Democratic written   andrew-jackso… "\n\…
    ##  6    42 Andrew Jackson   1830 1829-1833    Democratic written   andrew-jackso… "\n\…
    ##  7    43 Andrew Jackson   1831 1829-1833    Democratic written   andrew-jackso… "\n\…
    ##  8    44 Andrew Jackson   1832 1829-1833    Democratic written   andrew-jackso… "\n\…
    ##  9    45 Andrew Jackson   1833 1833-1837    Democratic written   andrew-jackso… "\n\…
    ## 10    46 Andrew Jackson   1834 1833-1837    Democratic written   andrew-jackso… "\n\…
    ## # ℹ 230 more rows

``` r
(tidy_sotu_words <- sotu_whole %>%
        unnest_tokens(word, text) %>%
        anti_join(stop_words))
```

    ## Joining with `by = join_by(word)`

    ## # A tibble: 787,861 × 8
    ##        X president        year years_active party      sotu_type doc_id         word 
    ##    <int> <chr>           <int> <chr>        <chr>      <chr>     <chr>          <chr>
    ##  1    73 Abraham Lincoln  1861 1861-1865    Republican written   abraham-linco… fell…
    ##  2    73 Abraham Lincoln  1861 1861-1865    Republican written   abraham-linco… citi…
    ##  3    73 Abraham Lincoln  1861 1861-1865    Republican written   abraham-linco… sena…
    ##  4    73 Abraham Lincoln  1861 1861-1865    Republican written   abraham-linco… house
    ##  5    73 Abraham Lincoln  1861 1861-1865    Republican written   abraham-linco… repr…
    ##  6    73 Abraham Lincoln  1861 1861-1865    Republican written   abraham-linco… midst
    ##  7    73 Abraham Lincoln  1861 1861-1865    Republican written   abraham-linco… unpr…
    ##  8    73 Abraham Lincoln  1861 1861-1865    Republican written   abraham-linco… poli…
    ##  9    73 Abraham Lincoln  1861 1861-1865    Republican written   abraham-linco… trou…
    ## 10    73 Abraham Lincoln  1861 1861-1865    Republican written   abraham-linco… grat…
    ## # ℹ 787,851 more rows

## Frequencies

Which words occur most frequently?

``` r
tidy_sotu_words %>% count(word, sort = TRUE)
```

    ## # A tibble: 29,875 × 2
    ##    word           n
    ##    <chr>      <int>
    ##  1 government  7597
    ##  2 congress    5808
    ##  3 united      5156
    ##  4 people      4298
    ##  5 country     3641
    ##  6 public      3419
    ##  7 time        3188
    ##  8 american    2988
    ##  9 war         2976
    ## 10 world       2633
    ## # ℹ 29,865 more rows
…
In any given year, how often is the word ‘peace’ used and how often is
the word ‘war’ used?

``` r
tidy_sotu_words %>%
        # select only the words 'war' and 'peace'
        filter(word %in% c("peace", "war")) %>%
        # count occurrences of each per year
        count(year, word)
```

    ## # A tibble: 442 × 3
    ##     year word      n
    ##    <int> <chr> <int>
    ##  1  1790 peace     3
    ##  2  1790 war       4
    ##  3  1791 peace     4
    ##  4  1791 war       1
    ##  5  1792 peace     5
    ##  6  1792 war       2
    ##  7  1793 peace     6
    ##  8  1793 war       4
    ##  9  1794 peace     3
    ## 10  1794 war       1
    ## # ℹ 432 more rows
…
How long was the average speech of each president and who are the most
‘wordy’ presidents?

``` r
# summarize the words per president per speech
tidy_sotu_words %>%
        count(president, doc_id)
```

    ## # A tibble: 240 × 3
    ##    president       doc_id                       n
    ##    <chr>           <chr>                    <int>
    ##  1 Abraham Lincoln abraham-lincoln-1861.txt  2578
    ##  2 Abraham Lincoln abraham-lincoln-1862.txt  3088
    ##  3 Abraham Lincoln abraham-lincoln-1863.txt  2398
    ##  4 Abraham Lincoln abraham-lincoln-1864.txt  2398
    ##  5 Andrew Jackson  andrew-jackson-1829.txt   3849
    ##  6 Andrew Jackson  andrew-jackson-1830.txt   5428
    ##  7 Andrew Jackson  andrew-jackson-1831.txt   2612
    ##  8 Andrew Jackson  andrew-jackson-1832.txt   2881
    ##  9 Andrew Jackson  andrew-jackson-1833.txt   2869
    ## 10 Andrew Jackson  andrew-jackson-1834.txt   4952
    ## # ℹ 230 more rows

``` r
# calculate the average number of words per speech
tidy_sotu_words %>%
        count(president, doc_id) %>%
        group_by(president) %>%
        summarise(avg_words = mean(n)) %>%
        arrange(desc(avg_words))
```

    ## # A tibble: 42 × 2
    ##    president           avg_words
    ##    <chr>                   <dbl>
    ##  1 William Howard Taft     9126.
    ##  2 William McKinley        7797 
    ##  3 Jimmy Carter            7674.
    ##  4 Theodore Roosevelt      7356 
    ##  5 James K. Polk           6920.
    ##  6 Grover Cleveland        5736.
    ##  7 James Buchanan          5409 
    ##  8 Benjamin Harrison       5308.
    ##  9 Rutherford B. Hayes     4411 
    ## 10 Martin Van Buren        4286.
    ## # ℹ 32 more rows

## Term frequency

``` r
# count term frequency
tidy_sotu_words %>%
        count(doc_id, word, sort = TRUE) %>%
        group_by(doc_id) %>%
        mutate(n_total = sum(n),
               term_freq = n/n_total)
```

    ## # A tibble: 358,168 × 5
    ## # Groups:   doc_id [240]
    ##    doc_id                       word               n n_total term_freq
    ##    <chr>                        <chr>          <int>   <int>     <dbl>
    ##  1 harry-s-truman-1946.txt      dollars          207   12615   0.0164 
    ##  2 jimmy-carter-1980b.txt       congress         204   16132   0.0126 
    ##  3 harry-s-truman-1946.txt      war              201   12615   0.0159 
    ##  4 william-howard-taft-1910.txt government       164   11178   0.0147 
    ##  5 james-k-polk-1846.txt        mexico           158    7023   0.0225 
    ##  6 richard-m-nixon-1974b.txt    federal          141    9996   0.0141 
    ##  7 harry-s-truman-1946.txt      million          138   12615   0.0109 
    ##  8 harry-s-truman-1946.txt      fiscal           129   12615   0.0102 
    ##  9 jimmy-carter-1981.txt        administration   129   16595   0.00777
    ## 10 william-howard-taft-1912.txt government       129   10215   0.0126 
    ## # ℹ 358,158 more rows
…
## tf-idf

``` r
tidy_sotu_words %>%
        count(doc_id, word, sort = TRUE) %>%
        bind_tf_idf(word, doc_id, n)
```

    ## # A tibble: 358,168 × 6
    ##    doc_id                       word               n      tf     idf    tf_idf
    ##    <chr>                        <chr>          <int>   <dbl>   <dbl>     <dbl>
    ##  1 harry-s-truman-1946.txt      dollars          207 0.0164  0.598   0.00981  
    ##  2 jimmy-carter-1980b.txt       congress         204 0.0126  0.00418 0.0000528
    ##  3 harry-s-truman-1946.txt      war              201 0.0159  0.0339  0.000540 
    ##  4 william-howard-taft-1910.txt government       164 0.0147  0.00418 0.0000613
    ##  5 james-k-polk-1846.txt        mexico           158 0.0225  0.799   0.0180   
    ##  6 richard-m-nixon-1974b.txt    federal          141 0.0141  0.293   0.00414  
    ##  7 harry-s-truman-1946.txt      million          138 0.0109  0.710   0.00777  
    ##  8 harry-s-truman-1946.txt      fiscal           129 0.0102  0.511   0.00522  
    ##  9 jimmy-carter-1981.txt        administration   129 0.00777 0.277   0.00215  
    ## 10 william-howard-taft-1912.txt government       129 0.0126  0.00418 0.0000527
    ## # ℹ 358,158 more rows

Words in the corpus that have the highest tf-idf scores, which means
words that are particularly distinctive for their documents.

``` r
tidy_sotu_words %>%
        count(doc_id, word, sort = TRUE)  %>% 
        bind_tf_idf(word, doc_id, n) %>% 
        arrange(desc(tf_idf))
```

    ## # A tibble: 358,168 × 6
    ##    doc_id                        word          n      tf   idf tf_idf
    ##    <chr>                         <chr>     <int>   <dbl> <dbl>  <dbl>
    ##  1 donald-trump-2019.txt         applause    104 0.0424   2.22 0.0942
    ##  2 lyndon-b-johnson-1966.txt     vietnam      32 0.0152   2.35 0.0356
    ##  3 jimmy-carter-1980a.txt        soviet       31 0.0218   1.49 0.0325
    ##  4 george-w-bush-2003.txt        hussein      19 0.00811  3.87 0.0314
    ##  5 george-w-bush-2003.txt        saddam       19 0.00811  3.69 0.0299
    ##  6 franklin-d-roosevelt-1943.txt 1942         13 0.00758  3.87 0.0294
    ##  7 dwight-d-eisenhower-1961.txt  1953         23 0.00747  3.87 0.0289
    ##  8 john-adams-1800.txt           gentlemen     8 0.0153   1.77 0.0270
    ##  9 benjamin-harrison-1892.txt    1892         40 0.00741  3.53 0.0262
    ## 10 franklin-d-roosevelt-1942.txt hitler        7 0.00527  4.79 0.0252
    ## # ℹ 358,158 more rows
…
## N-Grams: sequences of words

``` r
sotu_whole %>%
        # create bigrams
        unnest_tokens(bigram, text, token = "ngrams", n = 2) %>%
        select(!c(sotu_type, years_active))
```

    ## # A tibble: 1,987,986 × 6
    ##        X president        year party      doc_id                   bigram            
    ##    <int> <chr>           <int> <chr>      <chr>                    <chr>             
    ##  1    73 Abraham Lincoln  1861 Republican abraham-lincoln-1861.txt fellow citizens   
    ##  2    73 Abraham Lincoln  1861 Republican abraham-lincoln-1861.txt citizens of       
    ##  3    73 Abraham Lincoln  1861 Republican abraham-lincoln-1861.txt of the            
    ##  4    73 Abraham Lincoln  1861 Republican abraham-lincoln-1861.txt the senate        
    ##  5    73 Abraham Lincoln  1861 Republican abraham-lincoln-1861.txt senate and        
    ##  6    73 Abraham Lincoln  1861 Republican abraham-lincoln-1861.txt and house         
    ##  7    73 Abraham Lincoln  1861 Republican abraham-lincoln-1861.txt house of          
    ##  8    73 Abraham Lincoln  1861 Republican abraham-lincoln-1861.txt of representatives
    ##  9    73 Abraham Lincoln  1861 Republican abraham-lincoln-1861.txt representatives in
    ## 10    73 Abraham Lincoln  1861 Republican abraham-lincoln-1861.txt in the            
    ## # ℹ 1,987,976 more rows

``` r
# most common bigrams
sotu_whole %>%
        unnest_tokens(bigram, text, token = "ngrams", n = 2) %>% 
        count(bigram, sort = TRUE) # count occurrences and sort descending
```

    ## # A tibble: 475,217 × 2
    ##    bigram            n
    ##    <chr>         <int>
    ##  1 of the        33699
    ##  2 in the        12608
    ##  3 to the        11684
    ##  4 for the        6926
    ##  5 and the        6265
    ##  6 by the         5625
    ##  7 of our         5219
    ##  8 the united     4816
    ##  9 united states  4808
    ## 10 it is          4774
    ## # ℹ 475,207 more rows

``` r
# remove stopwords
sotu_whole %>%
        unnest_tokens(bigram, text, token = "ngrams", n = 2) %>%
        separate(col = bigram,
                 into = c("word1", "word2"),
                 sep = " ") %>%
        select(!c(years_active, sotu_type))
```

    ## # A tibble: 1,987,986 × 7
    ##        X president        year party      doc_id                   word1        word2
    ##    <int> <chr>           <int> <chr>      <chr>                    <chr>        <chr>
    ##  1    73 Abraham Lincoln  1861 Republican abraham-lincoln-1861.txt fellow       citi…
    ##  2    73 Abraham Lincoln  1861 Republican abraham-lincoln-1861.txt citizens     of   
    ##  3    73 Abraham Lincoln  1861 Republican abraham-lincoln-1861.txt of           the  
    ##  4    73 Abraham Lincoln  1861 Republican abraham-lincoln-1861.txt the          sena…
    ##  5    73 Abraham Lincoln  1861 Republican abraham-lincoln-1861.txt senate       and  
    ##  6    73 Abraham Lincoln  1861 Republican abraham-lincoln-1861.txt and          house
    ##  7    73 Abraham Lincoln  1861 Republican abraham-lincoln-1861.txt house        of   
    ##  8    73 Abraham Lincoln  1861 Republican abraham-lincoln-1861.txt of           repr…
    ##  9    73 Abraham Lincoln  1861 Republican abraham-lincoln-1861.txt representat… in   
    ## 10    73 Abraham Lincoln  1861 Republican abraham-lincoln-1861.txt in           the  
    ## # ℹ 1,987,976 more rows

``` r
# select only the words in each column that are not in the stopwords
sotu_whole %>%
        unnest_tokens(bigram, text, token = "ngrams", n = 2) %>%
        separate(col = bigram,
                 into = c("word1", "word2"),
                 sep = " ") %>%
        filter(!word1 %in% stop_words$word,
               !word2 %in% stop_words$word)
```

    ## # A tibble: 219,472 × 9
    ##        X president        year years_active party      sotu_type doc_id   word1 word2
    ##    <int> <chr>           <int> <chr>        <chr>      <chr>     <chr>    <chr> <chr>
    ##  1    73 Abraham Lincoln  1861 1861-1865    Republican written   abraham… fell… citi…
    ##  2    73 Abraham Lincoln  1861 1861-1865    Republican written   abraham… unpr… poli…
    ##  3    73 Abraham Lincoln  1861 1861-1865    Republican written   abraham… poli… trou…
    ##  4    73 Abraham Lincoln  1861 1861-1865    Republican written   abraham… abun… harv…
    ##  5    73 Abraham Lincoln  1861 1861-1865    Republican written   abraham… pecu… exig…
    ##  6    73 Abraham Lincoln  1861 1861-1865    Republican written   abraham… fore… nati…
    ##  7    73 Abraham Lincoln  1861 1861-1865    Republican written   abraham… prof… soli…
    ##  8    73 Abraham Lincoln  1861 1861-1865    Republican written   abraham… soli… chie…
    ##  9    73 Abraham Lincoln  1861 1861-1865    Republican written   abraham… dome… affa…
    ## 10    73 Abraham Lincoln  1861 1861-1865    Republican written   abraham… disl… port…
    ## # ℹ 219,462 more rows
``` r
# re-unite the two word columns into bigrams
(sotu_bigrams <- sotu_whole %>%
        unnest_tokens(bigram, text, token = "ngrams", n = 2) %>%
        separate(col = bigram,
                 into = c("word1", "word2"),
                 sep = " ") %>%
        filter(!word1 %in% stop_words$word,
               !word2 %in% stop_words$word) %>%
        unite(col = bigram,
              word1, word2,
              sep = " "))
```

    ## # A tibble: 219,472 × 8
    ##        X president        year years_active party      sotu_type doc_id                   bigram                 
    ##    <int> <chr>           <int> <chr>        <chr>      <chr>     <chr>                    <chr>                  
    ##  1    73 Abraham Lincoln  1861 1861-1865    Republican written   abraham-lincoln-1861.txt fellow citizens        
    ##  2    73 Abraham Lincoln  1861 1861-1865    Republican written   abraham-lincoln-1861.txt unprecedented political
    ##  3    73 Abraham Lincoln  1861 1861-1865    Republican written   abraham-lincoln-1861.txt political troubles     
    ##  4    73 Abraham Lincoln  1861 1861-1865    Republican written   abraham-lincoln-1861.txt abundant harvests      
    ##  5    73 Abraham Lincoln  1861 1861-1865    Republican written   abraham-lincoln-1861.txt peculiar exigencies    
    ##  6    73 Abraham Lincoln  1861 1861-1865    Republican written   abraham-lincoln-1861.txt foreign nations        
    ##  7    73 Abraham Lincoln  1861 1861-1865    Republican written   abraham-lincoln-1861.txt profound solicitude    
    ##  8    73 Abraham Lincoln  1861 1861-1865    Republican written   abraham-lincoln-1861.txt solicitude chiefly     
    ##  9    73 Abraham Lincoln  1861 1861-1865    Republican written   abraham-lincoln-1861.txt domestic affairs       
    ## 10    73 Abraham Lincoln  1861 1861-1865    Republican written   abraham-lincoln-1861.txt disloyal portion       
    ## # ℹ 219,462 more rows

``` r
sotu_bigrams %>% count(bigram, sort = TRUE)
```

    ## # A tibble: 131,892 × 2
    ##    bigram                 n
    ##    <chr>              <int>
    ##  1 federal government   479
    ##  2 american people      439
    ##  3 june 30              325
    ##  4 fellow citizens      302
    ##  5 public debt          283
    ##  6 public lands         256
    ##  7 health care          253
    ##  8 social security      233
    ##  9 post office          202
    ## 10 annual message       200
    ## # ℹ 131,882 more rows
…
Which words occur most commonly together at the end of the speeches?

``` r
(sotu_word_pairs <- sotu_whole %>%
        # extract last 100 words
        mutate(speech_end = word(text, -100, end = -1)) %>%
        # tokenize
        unnest_tokens(word, speech_end) %>%
        # remove stopwords %>%
        filter(!word %in% stop_words$word) %>%
        # don't include upper triangle of matrix
        pairwise_count(word, doc_id, sort = TRUE, upper = FALSE))
```

    ## # A tibble: 126,853 × 3
    ##    item1      item2       n
    ##    <chr>      <chr>   <dbl>
    ##  1 god        bless      41
    ##  2 god        america    39
    ##  3 bless      america    34
    ##  4 people     country    27
    ##  5 god        nation     24
    ##  6 world      god        23
    ##  7 god        people     23
    ##  8 god        country    22
    ##  9 people     america    22
    ## 10 government people     21
    ## # ℹ 126,843 more rows
…
## Document-Term Matrix

``` r
# make a table with document, term, count
tidy_sotu_words %>% 
        count(doc_id, word) 
```

    ## # A tibble: 358,168 × 3
    ##    doc_id                   word               n
    ##    <chr>                    <chr>          <int>
    ##  1 abraham-lincoln-1861.txt 1,470,018          1
    ##  2 abraham-lincoln-1861.txt 1,500              1
    ##  3 abraham-lincoln-1861.txt 100,000            1
    ##  4 abraham-lincoln-1861.txt 102,532,509.27     1
    ##  5 abraham-lincoln-1861.txt 12,528,000         1
    ##  6 abraham-lincoln-1861.txt 13,606,759.11      1
    ##  7 abraham-lincoln-1861.txt 1830               1
    ##  8 abraham-lincoln-1861.txt 1859               1
    ##  9 abraham-lincoln-1861.txt 1860               2
    ## 10 abraham-lincoln-1861.txt 1861               6
    ## # ℹ 358,158 more rows
…
    ## $citizen
    ##        laws citizenship  protection   contained    entitled  government    citizens  postmaster     careful    question      report       suits 
    ##        0.62        0.59        0.56        0.54        0.53        0.53        0.52        0.52        0.51        0.51        0.51        0.51

## Sentiment analysis

``` r
tidytext::sentiments
```

    ## # A tibble: 6,786 × 2
    ##    word        sentiment
    ##    <chr>       <chr>    
    ##  1 2-faces     negative 
    ##  2 abnormal    negative 
    ##  3 abolish     negative 
    ##  4 abominable  negative 
    ##  5 abominably  negative 
    ##  6 abominate   negative 
    ##  7 abomination negative 
    ##  8 abort       negative 
    ##  9 aborted     negative 
    ## 10 aborts      negative 
    ## # ℹ 6,776 more rows

``` r
(bing_lex <- get_sentiments("bing"))
```

    ## # A tibble: 6,786 × 2
    ##    word        sentiment
    ##    <chr>       <chr>    
    ##  1 2-faces     negative 
    ##  2 abnormal    negative 
    ##  3 abolish     negative 
    ##  4 abominable  negative 
    ##  5 abominably  negative 
    ##  6 abominate   negative 
    ##  7 abomination negative 
    ##  8 abort       negative 
    ##  9 aborted     negative 
    ## 10 aborts      negative 
    ## # ℹ 6,776 more rows
…
